lab4/mipstest.vcd
$date
	Thu Mar 14 12:00:40 2013
$end
$version
	Icarus Verilog
$end
$timescale
	1s
$end
$scope module mips_testbench $end
$var wire 12 ! chip_data [11:0] $end
$var wire 1 " chip_data_enable $end
$var wire 1 # chip_hsync $end
$var wire 1 $ chip_reset $end
$var wire 1 % chip_vsync $end
$var wire 4 & leds [3:0] $end
$var wire 1 ' scl $end
$var wire 1 ( sda $end
$var wire 1 ) xclk $end
$var wire 1 * xclk_n $end
$var reg 1 + clk $end
$var reg 1 , play $end
$var reg 1 - rst $end
$scope module dut $end
$var wire 8 . b [7:0] $end
$var wire 8 / b_cb [7:0] $end
$var wire 1 0 bottom_btn $end
$var wire 1 1 center_btn $end
$var wire 12 2 chip_data [11:0] $end
$var wire 1 " chip_data_enable $end
$var wire 1 # chip_hsync $end
$var wire 1 $ chip_reset $end
$var wire 1 % chip_vsync $end
$var wire 1 3 clk $end
$var wire 1 4 clk_half $end
$var wire 1 5 debug_select $end
$var wire 14 6 display_data [13:0] $end
$var wire 1 7 display_we $end
$var wire 8 8 g [7:0] $end
$var wire 8 9 g_cb [7:0] $end
$var wire 27 : led_counter [26:0] $end
$var wire 4 ; leds [3:0] $end
$var wire 1 < left_btn $end
$var wire 1 = memclk $end
$var wire 1 > mipsclk $end
$var wire 8 ? r [7:0] $end
$var wire 8 @ r_cb [7:0] $end
$var wire 1 A right_btn $end
$var wire 1 B rst $end
$var wire 1 C run $end
$var wire 1 D run_toggle $end
$var wire 1 ' scl $end
$var wire 1 ( sda $end
$var wire 1 E step $end
$var wire 8 F sw [7:0] $end
$var wire 1 G top_btn $end
$var wire 1 H trap $end
$var wire 8 I v_b [7:0] $end
$var wire 8 J v_g [7:0] $end
$var wire 8 K v_r [7:0] $end
$var wire 6 L vga_rgb [5:0] $end
$var wire 11 M x [10:0] $end
$var wire 1 ) xclk $end
$var wire 1 * xclk_n $end
$var wire 10 N y [9:0] $end
$scope module run_button_unit $end
$var wire 1 O button_debounced $end
$var wire 1 P button_sync $end
$var wire 1 3 clk $end
$var wire 1 Q in $end
$var wire 1 D out $end
$var wire 1 B rst $end
$scope module sync $end
$var wire 1 3 clk $end
$var wire 1 R ff1_out $end
$var wire 1 S ff2_out $end
$var wire 1 Q in $end
$var wire 1 P out $end
$scope module ff1 $end
$var wire 1 3 clk $end
$var wire 1 Q d $end
$var reg 1 T q $end
$upscope $end
$scope module ff2 $end
$var wire 1 3 clk $end
$var wire 1 R d $end
$var reg 1 U q $end
$upscope $end
$scope module ff3 $end
$var wire 1 3 clk $end
$var wire 1 S d $end
$var reg 1 V q $end
$upscope $end
$upscope $end
$scope module debounce $end
$var wire 1 3 clk $end
$var wire 20 W counter_out [19:0] $end
$var wire 2 X current_state_q [1:0] $end
$var wire 1 Y en $end
$var wire 1 P in $end
$var wire 1 B rst $end
$var reg 1 Z counter_enable $end
$var reg 1 [ counter_reset $end
$var reg 2 \ next_state_d [1:0] $end
$var reg 1 ] out $end
$scope module counter $end
$var wire 1 3 clk $end
$var wire 20 ^ d [19:0] $end
$var wire 1 _ en $end
$var wire 1 ` r $end
$var reg 20 a q [19:0] $end
$upscope $end
$scope module state $end
$var wire 1 3 clk $end
$var wire 2 b d [1:0] $end
$var wire 1 Y en $end
$var wire 1 B r $end
$var reg 2 c q [1:0] $end
$upscope $end
$upscope $end
$scope module one_pulse $end
$var wire 1 3 clk $end
$var wire 1 O in $end
$var wire 1 d last_value $end
$var wire 1 D out $end
$var wire 1 B rst $end
$scope module last_value_storage $end
$var wire 1 3 clk $end
$var wire 1 O d $end
$var wire 1 B r $end
$var reg 1 e q $end
$upscope $end
$upscope $end
$upscope $end
$scope module step_button_unit $end
$var wire 1 f button_debounced $end
$var wire 1 g button_sync $end
$var wire 1 3 clk $end
$var wire 1 h in $end
$var wire 1 E out $end
$var wire 1 B rst $end
$scope module sync $end
$var wire 1 3 clk $end
$var wire 1 i ff1_out $end
$var wire 1 j ff2_out $end
$var wire 1 h in $end
$var wire 1 g out $end
$scope module ff1 $end
$var wire 1 3 clk $end
$var wire 1 h d $end
$var reg 1 k q $end
$upscope $end
$scope module ff2 $end
$var wire 1 3 clk $end
$var wire 1 i d $end
$var reg 1 l q $end
$upscope $end
$scope module ff3 $end
$var wire 1 3 clk $end
$var wire 1 j d $end
$var reg 1 m q $end
$upscope $end
$upscope $end
$scope module debounce $end
$var wire 1 3 clk $end
$var wire 20 n counter_out [19:0] $end
$var wire 2 o current_state_q [1:0] $end
$var wire 1 p en $end
$var wire 1 g in $end
$var wire 1 B rst $end
$var reg 1 q counter_enable $end
$var reg 1 r counter_reset $end
$var reg 2 s next_state_d [1:0] $end
$var reg 1 t out $end
$scope module counter $end
$var wire 1 3 clk $end
$var wire 20 u d [19:0] $end
$var wire 1 v en $end
$var wire 1 w r $end
$var reg 20 x q [19:0] $end
$upscope $end
$scope module state $end
$var wire 1 3 clk $end
$var wire 2 y d [1:0] $end
$var wire 1 p en $end
$var wire 1 B r $end
$var reg 2 z q [1:0] $end
$upscope $end
$upscope $end
$scope module one_pulse $end
$var wire 1 3 clk $end
$var wire 1 f in $end
$var wire 1 { last_value $end
$var wire 1 E out $end
$var wire 1 B rst $end
$scope module last_value_storage $end
$var wire 1 3 clk $end
$var wire 1 f d $end
$var wire 1 B r $end
$var reg 1 | q $end
$upscope $end
$upscope $end
$upscope $end
$scope module trap_button_unit $end
$var wire 1 } button_debounced $end
$var wire 1 ~ button_sync $end
$var wire 1 3 clk $end
$var wire 1 !" in $end
$var wire 1 H out $end
$var wire 1 B rst $end
$scope module sync $end
$var wire 1 3 clk $end
$var wire 1 "" ff1_out $end
$var wire 1 #" ff2_out $end
$var wire 1 !" in $end
$var wire 1 ~ out $end
$scope module ff1 $end
$var wire 1 3 clk $end
$var wire 1 !" d $end
$var reg 1 $" q $end
$upscope $end
$scope module ff2 $end
$var wire 1 3 clk $end
$var wire 1 "" d $end
$var reg 1 %" q $end
$upscope $end
$scope module ff3 $end
$var wire 1 3 clk $end
$var wire 1 #" d $end
$var reg 1 &" q $end
$upscope $end
$upscope $end
$scope module debounce $end
$var wire 1 3 clk $end
$var wire 20 '" counter_out [19:0] $end
$var wire 2 (" current_state_q [1:0] $end
$var wire 1 )" en $end
$var wire 1 ~ in $end
$var wire 1 B rst $end
$var reg 1 *" counter_enable $end
$var reg 1 +" counter_reset $end
$var reg 2 ," next_state_d [1:0] $end
$var reg 1 -" out $end
$scope module counter $end
$var wire 1 3 clk $end
$var wire 20 ." d [19:0] $end
$var wire 1 /" en $end
$var wire 1 0" r $end
$var reg 20 1" q [19:0] $end
$upscope $end
$scope module state $end
$var wire 1 3 clk $end
$var wire 2 2" d [1:0] $end
$var wire 1 )" en $end
$var wire 1 B r $end
$var reg 2 3" q [1:0] $end
$upscope $end
$upscope $end
$scope module one_pulse $end
$var wire 1 3 clk $end
$var wire 1 } in $end
$var wire 1 4" last_value $end
$var wire 1 H out $end
$var wire 1 B rst $end
$scope module last_value_storage $end
$var wire 1 3 clk $end
$var wire 1 } d $end
$var wire 1 B r $end
$var reg 1 5" q $end
$upscope $end
$upscope $end
$upscope $end
$scope module run_dff $end
$var wire 1 3 clk $end
$var wire 1 6" d $end
$var wire 1 B r $end
$var reg 1 7" q $end
$upscope $end
$scope module clk_div $end
$var wire 1 3 clk $end
$var wire 1 8" d $end
$var wire 1 9" r $end
$var reg 1 :" q $end
$upscope $end
$scope module cpu $end
$var wire 32 ;" alu_op_x [31:0] $end
$var wire 32 <" alu_op_y [31:0] $end
$var wire 4 =" alu_opcode [3:0] $end
$var wire 1 >" alu_overflow $end
$var wire 32 ?" alu_result [31:0] $end
$var wire 1 @" branch_en $end
$var wire 1 > clk $end
$var wire 32 A" controller_data [31:0] $end
$var wire 14 B" display_data [13:0] $end
$var wire 1 7 display_we $end
$var wire 1 C" en $end
$var wire 32 D" instr [31:0] $end
$var wire 1 E" jump_en $end
$var wire 1 F" jump_reg_en $end
$var wire 32 G" mem_read_data [31:0] $end
$var wire 1 H" mem_read_en $end
$var wire 1 I" mem_stall $end
$var wire 1 J" mem_write_en $end
$var wire 1 = memclk $end
$var wire 32 K" pc [31:0] $end
$var wire 5 L" reg_write_addr [4:0] $end
$var wire 32 M" reg_write_data [31:0] $end
$var wire 1 N" reg_write_en $end
$var wire 5 O" rs_addr [4:0] $end
$var wire 32 P" rs_data [31:0] $end
$var wire 1 Q" rst $end
$var wire 5 R" rt_addr [4:0] $end
$var wire 32 S" rt_data [31:0] $end
$var wire 1 H trap $end
$scope module if_stage $end
$var wire 1 @" branch_en $end
$var wire 32 T" branch_pc [31:0] $end
$var wire 1 > clk $end
$var wire 1 U" en $end
$var wire 32 V" inc_pc [31:0] $end
$var wire 32 W" instr [31:0] $end
$var wire 1 E" jump_en $end
$var wire 32 X" jump_pc [31:0] $end
$var wire 1 F" jump_reg_en $end
$var wire 32 Y" jump_reg_pc [31:0] $end
$var wire 32 Z" pc [31:0] $end
$var wire 1 Q" rst $end
$var wire 1 [" trap_en $end
$var wire 32 \" trap_pc [31:0] $end
$var reg 32 ]" next_pc [31:0] $end
$scope module pc_reg $end
$var wire 1 > clk $end
$var wire 32 ^" d [31:0] $end
$var wire 1 U" en $end
$var wire 1 Q" r $end
$var reg 32 _" q [31:0] $end
$upscope $end
$scope module instr_mem $end
$var wire 9 `" addr [8:0] $end
$var wire 32 a" dout [31:0] $end
$upscope $end
$upscope $end
$scope module d_stage $end
$var wire 32 b" alu_op_x [31:0] $end
$var wire 32 c" alu_op_y [31:0] $end
$var wire 32 d" alu_result [31:0] $end
$var wire 1 e" alu_zero $end
$var wire 1 @" branch_en $end
$var wire 6 f" funct [5:0] $end
$var wire 32 g" imm_sign_extend [31:0] $end
$var wire 32 h" imm_upper [31:0] $end
$var wire 32 i" imm_zero_extend [31:0] $end
$var wire 16 j" immediate [15:0] $end
$var wire 32 k" instr [31:0] $end
$var wire 1 l" isBEQ $end
$var wire 1 m" isBGEZ $end
$var wire 1 n" isBGTZ $end
$var wire 1 o" isBLEZ $end
$var wire 1 p" isBLTZ $end
$var wire 1 q" isBNE $end
$var wire 1 r" isBranch $end
$var wire 1 s" isBranchLink $end
$var wire 1 t" isJ $end
$var wire 1 u" isJAL $end
$var wire 1 v" isJALR $end
$var wire 1 w" isJR $end
$var wire 1 x" isLink $end
$var wire 1 y" isSLL $end
$var wire 1 z" isSLLV $end
$var wire 1 {" isSRA $end
$var wire 1 |" isSRAV $end
$var wire 1 }" isSRL $end
$var wire 1 ~" isSRLV $end
$var wire 1 !# isShift $end
$var wire 1 "# isShiftImm $end
$var wire 1 E" jump_en $end
$var wire 1 F" jump_reg_en $end
$var wire 1 H" mem_read_en $end
$var wire 1 J" mem_write_en $end
$var wire 6 ## op [5:0] $end
$var wire 32 $# pc [31:0] $end
$var wire 5 %# rd_addr [4:0] $end
$var wire 5 &# reg_write_addr [4:0] $end
$var wire 1 N" reg_write_en $end
$var wire 5 '# rs_addr [4:0] $end
$var wire 32 (# rs_data [31:0] $end
$var wire 1 )# rs_neg $end
$var wire 1 *# rs_pos $end
$var wire 1 +# rs_zero $end
$var wire 5 ,# rt_addr [4:0] $end
$var wire 32 -# rt_data [31:0] $end
$var wire 5 .# shamt [4:0] $end
$var wire 32 /# shift_amount [31:0] $end
$var wire 1 0# use_imm $end
$var reg 4 1# alu_opcode [3:0] $end
$var reg 32 2# imm [31:0] $end
$upscope $end
$scope module x_stage $end
$var wire 1 3# add_check $end
$var wire 1 4# add_neg_over $end
$var wire 1 5# add_pos_over $end
$var wire 1 6# alu_neg $end
$var wire 32 7# alu_op_x [31:0] $end
$var wire 32 8# alu_op_x_signed [31:0] $end
$var wire 32 9# alu_op_y [31:0] $end
$var wire 32 :# alu_op_y_signed [31:0] $end
$var wire 4 ;# alu_opcode [3:0] $end
$var wire 1 >" alu_overflow $end
$var wire 1 <# sub_check $end
$var wire 1 =# sub_neg_over $end
$var wire 1 ># sub_pos_over $end
$var wire 1 ?# x_neg $end
$var wire 1 @# y_neg $end
$var reg 32 A# alu_result [31:0] $end
$upscope $end
$scope module m_stage $end
$var wire 32 B# addr [31:0] $end
$var wire 1 > clk $end
$var wire 1 C# complete $end
$var wire 32 D# controller_data [31:0] $end
$var wire 32 E# data_in [31:0] $end
$var wire 32 F# data_out [31:0] $end
$var wire 14 G# display_data [13:0] $end
$var wire 1 7 display_we $end
$var wire 32 H# dram_data [31:0] $end
$var wire 1 I# dram_re $end
$var wire 1 J# dram_we $end
$var wire 1 K# isControllerAddr $end
$var wire 1 L# isDisplayAddr $end
$var wire 1 I" mem_stall $end
$var wire 1 = memclk $end
$var wire 1 M# re $end
$var wire 1 Q" rst $end
$var wire 1 N# we $end
$scope module data_cache $end
$var wire 32 O# addr [31:0] $end
$var wire 2 P# block_start [1:0] $end
$var wire 1 Q# cache_hit $end
$var wire 1 > clk $end
$var wire 1 C# complete $end
$var wire 32 R# din [31:0] $end
$var wire 32 S# dout [31:0] $end
$var wire 12 T# dram_addr [11:0] $end
$var wire 1 U# dram_complete $end
$var wire 128 V# dram_out [127:0] $end
$var wire 6 W# index [5:0] $end
$var wire 1 = memclk $end
$var wire 1 I# re $end
$var wire 1 Q" rst $end
$var wire 1 J# we $end
$var reg 128 X# block [127:0] $end
$var reg 1 Y# cache_complete $end
$var reg 32 Z# cache_dout [31:0] $end
$var reg 128 [# dram_in [127:0] $end
$var reg 1 \# dram_re $end
$var reg 1 ]# dram_we $end
$var integer 32 ^# i [31:0] $end
$scope module dram $end
$var wire 12 _# addr [11:0] $end
$var wire 1 > clk $end
$var wire 1 U# complete $end
$var wire 32 `# cycle_count [31:0] $end
$var wire 128 a# din [127:0] $end
$var wire 1 b# latency_done $end
$var wire 1 = memclk $end
$var wire 1 c# re $end
$var wire 1 Q" rst $end
$var wire 1 d# we $end
$var reg 128 e# dout [127:0] $end
$scope module cycle_count_ff $end
$var wire 1 Q" ar $end
$var wire 1 > clk $end
$var wire 32 f# d [31:0] $end
$var wire 1 g# en $end
$var wire 1 b# r $end
$var reg 32 h# q [31:0] $end
$upscope $end
$upscope $end
$upscope $end
$upscope $end
$scope module w_stage $end
$var wire 1 > clk $end
$var wire 5 i# rs_addr [4:0] $end
$var wire 32 j# rs_data [31:0] $end
$var wire 5 k# rt_addr [4:0] $end
$var wire 32 l# rt_data [31:0] $end
$var wire 1 m# we $end
$var wire 5 n# write_addr [4:0] $end
$var wire 32 o# write_data [31:0] $end
$upscope $end
$upscope $end
$scope module led_div $end
$var wire 1 3 clk $end
$var wire 27 p# d [26:0] $end
$var reg 27 q# q [26:0] $end
$upscope $end
$scope module ctrl $end
$var wire 8 r# b [7:0] $end
$var wire 12 s# chip_data [11:0] $end
$var wire 1 " chip_data_enable $end
$var wire 1 # chip_hsync $end
$var wire 1 $ chip_reset $end
$var wire 1 % chip_vsync $end
$var wire 1 3 clk $end
$var wire 1 t# en $end
$var wire 8 u# g [7:0] $end
$var wire 8 v# r [7:0] $end
$var wire 1 B rst $end
$var wire 1 w# valid_data $end
$var wire 11 x# x [10:0] $end
$var wire 1 ) xclk $end
$var wire 1 * xclk_n $end
$var wire 10 y# y [9:0] $end
$var reg 24 z# accum [23:0] $end
$var integer 32 {# file [31:0] $end
$var integer 32 |# naccum [31:0] $end
$scope module gen_sync $end
$var wire 1 3 clk $end
$var wire 1 t# en $end
$var wire 1 # hsync $end
$var wire 1 B rst $end
$var wire 1 w# valid_data $end
$var wire 1 }# valid_h $end
$var wire 1 ~# valid_v $end
$var wire 1 % vsync $end
$var reg 11 !$ hsync_counter [10:0] $end
$var reg 11 "$ pixel_counter [10:0] $end
$var reg 11 #$ x [10:0] $end
$var reg 10 $$ y [9:0] $end
$upscope $end
$scope module make_chip_data $end
$var wire 8 %$ b [7:0] $end
$var wire 1 3 clk $end
$var wire 8 &$ g [7:0] $end
$var wire 8 '$ r [7:0] $end
$var wire 1 w# valid $end
$var reg 12 ($ chip_data [11:0] $end
$var reg 1 )$ chip_data_enable $end
$var reg 24 *$ pixel [23:0] $end
$upscope $end
$upscope $end
$scope module mips_disp $end
$var wire 6 +$ XPos [5:0] $end
$var wire 5 ,$ YPos [4:0] $end
$var wire 6 -$ block_x_write [5:0] $end
$var wire 5 .$ block_y_write [4:0] $end
$var wire 1 > clk $end
$var wire 3 /$ color [2:0] $end
$var wire 14 0$ display_data [13:0] $end
$var wire 3 1$ out_color [2:0] $end
$var wire 11 2$ read_addr [10:0] $end
$var wire 1 3$ valid $end
$var wire 6 4$ vga_rgb [5:0] $end
$var wire 1 7 we $end
$var wire 11 5$ write_addr [10:0] $end
$upscope $end
$scope module i2c_controller $end
$var wire 1 3 clk $end
$var wire 1 6$ done $end
$var wire 1 B rst $end
$var wire 1 ' scl $end
$var wire 1 7$ scl_logic $end
$var wire 1 ( sda $end
$var reg 3 8$ packet_index [2:0] $end
$var reg 14 9$ scl_counter [13:0] $end
$var reg 1 :$ sda_logic $end
$var reg 28 ;$ sda_shift [27:0] $end
$var reg 5 <$ state [4:0] $end
$upscope $end
$scope module tp $end
$var wire 11 =$ x [10:0] $end
$var wire 10 >$ y [9:0] $end
$var reg 8 ?$ b [7:0] $end
$var reg 8 @$ g [7:0] $end
$var reg 8 A$ r [7:0] $end
$upscope $end
$upscope $end
$upscope $end
$enddefinitions $end
#0
$dumpvars
bx A$
bx @$
bx ?$
bx >$
bx =$
bx <$
bx ;$
x:$
bx 9$
bx 8$
x7$
x6$
bx 5$
bx 4$
13$
bx 2$
bx 1$
bx 0$
bx /$
bx .$
bx -$
bx ,$
bx +$
bx *$
x)$
bx ($
bx '$
bx &$
bx %$
bx $$
bx #$
bx "$
bx !$
x~#
x}#
bx |#
b10000000000000000000000000000011 {#
bx z#
bx y#
bx x#
xw#
bx v#
bx u#
1t#
bx s#
bx r#
bx q#
bx p#
bx o#
bx n#
xm#
bx l#
bx k#
bx j#
bx i#
bx h#
xg#
bx f#
bx e#
xd#
xc#
xb#
bx a#
bx `#
bx00 _#
b1000000 ^#
x]#
x\#
bx [#
bx Z#
xY#
bx X#
bx W#
bx V#
xU#
bx00 T#
bx S#
bx R#
xQ#
bx P#
bx O#
xN#
xM#
xL#
xK#
xJ#
xI#
bx H#
bx G#
bx F#
bx E#
b0 D#
xC#
bx B#
bx A#
x@#
x?#
x>#
x=#
0<#
b1101 ;#
bx :#
bx 9#
bx 8#
bx 7#
x6#
x5#
x4#
13#
bx 2#
b1101 1#
x0#
b0xxxxx /#
bx .#
bx -#
bx ,#
x+#
x*#
x)#
bx (#
bx '#
bx &#
bx %#
bx $#
bx ##
x"#
x!#
x~"
x}"
x|"
x{"
xz"
xy"
xx"
xw"
xv"
xu"
xt"
xs"
xr"
xq"
xp"
xo"
xn"
xm"
xl"
bx k"
bx j"
b0xxxxxxxxxxxxxxxx i"
bx0000000000000000 h"
bx g"
bx f"
xe"
bx d"
bx c"
bx b"
bx a"
bx `"
bx _"
b11111010000 ^"
b11111010000 ]"
b11111010000 \"
x["
bx Z"
bx Y"
bx00 X"
bx W"
bx V"
xU"
bx T"
bx S"
bx R"
1Q"
bx P"
bx O"
xN"
bx M"
bx L"
bx K"
xJ"
xI"
xH"
bx G"
xF"
xE"
bx D"
xC"
bx B"
b0 A"
x@"
bx ?"
x>"
b1101 ="
bx <"
bx ;"
x:"
19"
x8"
x7"
x6"
x5"
x4"
bx 3"
b0 2"
bx 1"
10"
0/"
bx ."
0-"
b0 ,"
1+"
0*"
1)"
bx ("
bx '"
x&"
x%"
x$"
x#"
x""
0!"
x~
0}
x|
x{
bx z
b0 y
bx x
1w
0v
bx u
0t
b0 s
1r
0q
1p
bx o
bx n
xm
xl
xk
xj
xi
0h
xg
0f
xe
xd
bx c
b0 b
bx a
1`
0_
bx ^
0]
b0 \
1[
0Z
1Y
bx X
bx W
xV
xU
xT
xS
xR
xQ
xP
0O
bx N
bx M
bx L
bx K
bx J
bx I
0H
0G
b0 F
0E
0D
xC
0B
0A
bx @
bx ?
x>
x=
x<
bx ;
bx :
bx 9
bx 8
x7
bx 6
05
x4
03
bx 2
01
00
bx /
bx .
0-
x,
0+
0*
1)
x(
x'
bx &
x%
1$
x#
x"
bx !
$end
#5
b0 a
b1 ^
b0 W
b0 c
b0 X
0e
0d
0k
0i
b0 x
b1 u
b0 n
b0 z
b0 o
0|
0{
0$"
0""
b0 1"
b1 ."
b0 '"
b0 3"
b0 ("
05"
04"
1*
0)
1+
13
#10
0Q#
0!#
b111111111100 T#
b111111111100 _#
b111111 W#
05#
06#
b11 P#
b1111111111111111 M"
b1111111111111111 o#
b100 ]"
b100 ^"
0>#
0@#
04#
0=#
0?#
b1111111111111111 A#
0L#
0K#
0e"
b1111111111111111 ?"
b1111111111111111 d"
b1111111111111111 B#
b1111111111111111 O#
b0 /#
0*#
0"#
0["
0@"
1N"
0x"
b1111111111111111 :#
b1111111111111111 <"
b1111111111111111 c"
b1111111111111111 9#
0J#
07
0I#
b0 8#
b0 ;"
b0 b"
b0 7#
0)#
0s"
b1000 L"
b1000 &#
b1000 n#
0F"
0>"
0m"
0r"
0p"
0E"
0N#
0M#
1+#
b0 P"
b0 Y"
b0 (#
b0 j#
0v"
0w"
0y"
0{"
0}"
0z"
0|"
0~"
b11 1#
03#
b11 ="
b11 ;#
b1111111111111111 2#
0l"
0q"
0n"
0o"
0t"
0u"
10#
0J"
0H"
b1101 ##
b0 O"
b0 '#
b0 i#
b1000 R"
b1000 ,#
b1000 k#
b11111 %#
b11111 .#
b111111 f"
b11111111111111111111111111111111 g"
b1111111111111111 i"
b11111111111111110000000000000000 h"
b1111111111111111 j"
b0 T"
1=
18"
b0 `"
b110100000010001111111111111111 D"
b110100000010001111111111111111 W"
b110100000010001111111111111111 a"
b110100000010001111111111111111 k"
b1000111111111111111100 X"
0I"
b0 G"
b0 F#
0:"
04
0>
b0 _"
b100 V"
b0 K"
b0 Z"
b0 $#
b0 h#
b1 f#
0b#
b0 `#
b0 X#
1Y#
1C#
b0 Z#
b0 H#
b0 S#
b0 [#
b0 a#
0*
09"
0Q"
1)
1B
0+
03
1-
1G
#15
0m#
0w#
0U"
17$
z'
b0 ,$
b0 2$
b0 +$
b11111111 ?$
b11111111 /
b11111111 @$
b11111111 9
b11111111 A$
b11111111 @
0%
0~#
0}#
0C"
06"
1:$
z(
b0 ;$
b0 8$
06$
b0 <$
b0 9$
b0 $$
b0 N
b0 y#
b0 >$
b0 #$
b0 M
b0 x#
b0 =$
b0 !$
b0 "$
0#
07"
0C
0%"
0#"
0l
0j
1*
0)
1+
13
#20
0*
19"
1Q"
1)
1Q
0B
0+
03
1,
1<
0-
0G
#25
0=
08"
1T
1R
0m
0g
0&"
0~
b1 "$
1#
0)$
0"
b1110110010100100111100000010 ;$
b1 9$
1:"
14
1>
1*
0)
1+
13
#30
0*
1)
0Q
0+
03
0,
0<
#35
1}#
1=
18"
b10 9$
b10 "$
1U
1S
0T
0R
0:"
04
0>
1*
0)
1+
13
#40
0*
1)
0+
03
#45
b1 \
b1 b
b0 ?$
b0 /
b0 @$
b0 9
0=
08"
0U
0S
1V
1P
b11 "$
b1 #$
b1 M
b1 x#
b1 =$
b11 9$
1:"
14
1>
1*
0)
1+
13
#50
0*
1)
0+
03
#55
16"
1_
0`
1D
b0 ?$
b0 /
b0 @$
b0 9
1Z
0[
1]
1O
1=
18"
b100 9$
b10 #$
b10 M
b10 x#
b10 =$
b100 "$
b1 c
b1 X
0V
0P
0:"
04
0>
1*
0)
1+
13
#60
0*
1)
0+
03
#65
1m#
0D
1U"
1C"
16"
b0 ?$
b0 /
b0 @$
b0 9
0=
08"
b1 a
b10 ^
b1 W
1e
1d
17"
1C
b101 "$
b11 #$
b11 M
b11 x#
b11 =$
b101 9$
1:"
14
1>
1*
0)
1+
13
#70
0*
1)
0+
03
#75
b0 ?$
b0 /
b0 @$
b0 9
1=
18"
b110 9$
b100 #$
b100 M
b100 x#
b100 =$
b110 "$
b10 a
b11 ^
b10 W
0:"
04
0>
1*
0)
1+
13
#80
0*
1)
0+
03
#85
b0 T#
b0 _#
b0 W#
b0 P#
b0 M"
b0 o#
b0 :#
b0 <"
b0 c"
b0 9#
b1001 L"
b1001 &#
b1001 n#
b0 A#
1e"
b0 ?"
b0 d"
b0 B#
b0 O#
bx 5$
bx .$
bx -$
bx /$
b1 1#
b1 ="
b1 ;#
b0 2#
bx 6
bx B"
bx G#
bx 0$
b1100 ##
b1001 R"
b1001 ,#
b1001 k#
b0 %#
b0 .#
b0 f"
b0 g"
b0 i"
b0 h"
b0 j"
b1001000000000000000000 X"
bx S"
bx -#
bx E#
bx R#
bx l#
b1 `"
b110000000010010000000000000000 D"
b110000000010010000000000000000 W"
b110000000010010000000000000000 a"
b110000000010010000000000000000 k"
b1000 ]"
b1000 ^"
b100 _"
b1000 T"
b1000 V"
b100 K"
b100 Z"
b100 $#
b0 ?$
b0 /
b0 @$
b0 9
0=
08"
b11 a
b100 ^
b11 W
b111 "$
b101 #$
b101 M
b101 x#
b101 =$
b111 9$
1:"
14
1>
1*
0)
1+
13
#90
0*
1)
0+
03
#95
b0 ?$
b0 /
b0 @$
b0 9
1=
18"
b1000 9$
b110 #$
b110 M
b110 x#
b110 =$
b1000 "$
b100 a
b101 ^
b100 W
0:"
04
0>
1*
0)
1+
13
#100
0*
1)
0+
03
#105
b1001000000 T#
b1001000000 _#
b10000 W#
b10 P#
b100100001000 M"
b100100001000 o#
b100100001000 A#
0e"
b100100001000 ?"
b100100001000 d"
b100100001000 B#
b100100001000 O#
0m#
b100100001000 :#
b100100001000 <"
b100100001000 c"
b100100001000 9#
1J#
b1000 L"
b1000 &#
b1000 n#
b10100010111 5$
b11111 .$
b111111 -$
b0 /$
0N"
1N#
b1101 1#
13#
b1101 ="
b1101 ;#
b100100001000 2#
b11111111111 6
b11111111111 B"
b11111111111 G#
b11111111111 0$
1J"
b101011 ##
b1001 O"
b1001 '#
b1001 i#
b1000 R"
b1000 ,#
b1000 k#
b1 %#
b100 .#
b1000 f"
b100100001000 g"
b100100001000 i"
b1001000010000000000000000000 h"
b100100001000 j"
b100101000000010010000100000 X"
b1111111111111111 S"
b1111111111111111 -#
b1111111111111111 E#
b1111111111111111 R#
b1111111111111111 l#
b10 `"
b10101101001010000000100100001000 D"
b10101101001010000000100100001000 W"
b10101101001010000000100100001000 a"
b10101101001010000000100100001000 k"
b1100 ]"
b1100 ^"
b1000 _"
b10010000101100 T"
b1100 V"
b1000 K"
b1000 Z"
b1000 $#
b0 ?$
b0 /
b0 @$
b0 9
0=
08"
b101 a
b110 ^
b101 W
b1001 "$
b111 #$
b111 M
b111 x#
b111 =$
b1001 9$
1:"
14
1>
1*
0)
1+
13
#110
0*
1)
0+
03
#115
b0 ?$
b0 /
b0 @$
b0 9
1=
18"
b1010 9$
b1000 #$
b1000 M
b1000 x#
b1000 =$
b1010 "$
b110 a
b111 ^
b110 W
0:"
04
0>
1*
0)
1+
13
#120
0*
1)
0+
03
#125
xm#
0J#
1I#
1N"
0N#
b0 M"
b0 o#
1M#
0J"
1H"
b100011 ##
b11 `"
b10001101001010000000100100001000 D"
b10001101001010000000100100001000 W"
b10001101001010000000100100001000 a"
b10001101001010000000100100001000 k"
b10000 ]"
b10000 ^"
b1100 _"
b10010000110000 T"
b10000 V"
b1100 K"
b1100 Z"
b1100 $#
xU"
0U#
xI"
1g#
b0 ?$
b0 /
b0 @$
b0 9
0=
xY#
xC#
b11111111111111110000000000000000000000000000000000000000000000000000000000000000 [#
b11111111111111110000000000000000000000000000000000000000000000000000000000000000 a#
1]#
1d#
0\#
0c#
08"
b111 a
b1000 ^
b111 W
b1011 "$
b1001 #$
b1001 M
b1001 x#
b1001 =$
b1011 9$
1:"
14
1>
1*
0)
1+
13
#130
0*
1)
0+
03
#135
b0 ?$
b0 /
b0 @$
b0 9
1=
18"
b1100 9$
b1010 #$
b1010 M
b1010 x#
b1010 =$
b1100 "$
b1000 a
b1001 ^
b1000 W
0:"
04
0>
1*
0)
1+
13
#140
0*
1)
0+
03
#145
0m#
0U"
bx M"
bx o#
1I"
bx G"
bx F#
1Q#
0Y#
0C#
bx Z#
bx H#
bx S#
1\#
1c#
0]#
0d#
b1 h#
b10 f#
b1 `#
b0 ?$
b0 /
b0 @$
b0 9
0=
08"
b1001 a
b1010 ^
b1001 W
b1101 "$
b1011 #$
b1011 M
b1011 x#
b1011 =$
b1101 9$
1:"
14
1>
1*
0)
1+
13
#150
0*
1)
0+
03
#155
b0 ?$
b0 /
b0 @$
b0 9
1=
18"
b1110 9$
b1100 #$
b1100 M
b1100 x#
b1100 =$
b1110 "$
b1010 a
b1011 ^
b1010 W
0:"
04
0>
1*
0)
1+
13
#160
0*
1)
0+
03
#165
b10 h#
b11 f#
b10 `#
1U#
0g#
b0 ?$
b0 /
b0 @$
b0 9
0=
bx X#
0\#
0c#
08"
b1011 a
b1100 ^
b1011 W
b1111 "$
b1101 #$
b1101 M
b1101 x#
b1101 =$
b1111 9$
1:"
14
1>
1*
0)
1+
13
#170
0*
1)
0+
03
#175
b0 ?$
b0 /
b0 @$
b0 9
1=
18"
b10000 9$
b1110 #$
b1110 M
b1110 x#
b1110 =$
b10000 "$
b1100 a
b1101 ^
b1100 W
0:"
04
0>
1*
0)
1+
13
#180
0*
1)
0+
03
#185
b0 ?$
b0 /
b0 @$
b0 9
0=
08"
b1101 a
b1110 ^
b1101 W
b10001 "$
b1111 #$
b1111 M
b1111 x#
b1111 =$
b10001 9$
1:"
14
1>
1*
0)
1+
13
#190
0*
1)
0+
03
